{
	"PRESET_FILES": [
		[
			"alliedsnowchoppers",
			1000000017
		],
		[
			"CoilController",
			1000000021
		],
		[
			"swim",
			1000000022
		],
		[
			"GameOverController",
			1000000018
		],
		[
			"weather",
			1000000011
		],
		[
			"helikiller",
			1000000009
		],
		[
			"navb",
			1000000007
		],
		[
			"lstb",
			1000000005
		],
		[
			"HWR_Surf",
			1000000003
		],
		[
			"hwtest",
			1000000000
		],
		[
			"wat",
			1000000001
		],
		[
			"HWR_Icewind",
			1000000004
		],
		[
			"boundy",
			1000000014
		],
		[
			"boundya",
			1000000015
		],
		[
			"noflare",
			1000000016
		],
		[
			"safety",
			1000000013
		],
		[
			"snowyplanes",
			1000000026
		]
	],
	"VERSION": 12578
}