{
	"FACTORY_ID": 263687,
	"FACTORY_WRAPPER": {
		"DATA": {
			"DEFINITION_BASE": {
				"ID": 1000000004,
				"NAME": "csnow1"
			},
			"PURCHASE_SETTINGS_DEF_CLASS": {
				"TEAM": 0,
				"TYPE": 0,
				"PURCHASE_ITEMS": [
					{
						"COST": 500,
						"PRESET_ID": 81930082,
						"STRING_ID": 0,
						"TEXTURE": "pt_al_engineer.dds",
						"TECH_LEVEL": 1,
						"SPECIAL_TECH_NUMBER": 0,
						"UNIT_LIMIT": 0,
						"FACTORY": 1,
						"TECH_BUILDING": -1,
						"FACTORY_NOT_REQUIRED": false,
						"ALT_PRESETIDS": [
							0,
							0,
							0
						],
						"ALT_TEXTURES": [
							" ",
							" ",
							" "
						]
					},
					{
						"COST": 200,
						"PRESET_ID": 81930107,
						"STRING_ID": 0,
						"TEXTURE": "pt_al_sergeant.dds",
						"TECH_LEVEL": 1,
						"SPECIAL_TECH_NUMBER": 0,
						"UNIT_LIMIT": 0,
						"FACTORY": -1,
						"TECH_BUILDING": -1,
						"FACTORY_NOT_REQUIRED": true,
						"ALT_PRESETIDS": [
							0,
							0,
							0
						],
						"ALT_TEXTURES": [
							" ",
							" ",
							" "
						]
					},
					{
						"COST": 300,
						"PRESET_ID": 81930087,
						"STRING_ID": 0,
						"TEXTURE": "pt_al_officer.dds",
						"TECH_LEVEL": 1,
						"SPECIAL_TECH_NUMBER": 0,
						"UNIT_LIMIT": 0,
						"FACTORY": -1,
						"TECH_BUILDING": -1,
						"FACTORY_NOT_REQUIRED": true,
						"ALT_PRESETIDS": [
							0,
							0,
							0
						],
						"ALT_TEXTURES": [
							" ",
							" ",
							" "
						]
					},
					{
						"COST": 400,
						"PRESET_ID": 81930084,
						"STRING_ID": 0,
						"TEXTURE": "pt_al_rocket.dds",
						"TECH_LEVEL": 1,
						"SPECIAL_TECH_NUMBER": 0,
						"UNIT_LIMIT": 0,
						"FACTORY": 1,
						"TECH_BUILDING": -1,
						"FACTORY_NOT_REQUIRED": false,
						"ALT_PRESETIDS": [
							0,
							0,
							0
						],
						"ALT_TEXTURES": [
							" ",
							" ",
							" "
						]
					},
					{
						"COST": 500,
						"PRESET_ID": 81930080,
						"STRING_ID": 0,
						"TEXTURE": "pt_al_sniper_s.dds",
						"TECH_LEVEL": 1,
						"SPECIAL_TECH_NUMBER": 0,
						"UNIT_LIMIT": 0,
						"FACTORY": 1,
						"TECH_BUILDING": -1,
						"FACTORY_NOT_REQUIRED": false,
						"ALT_PRESETIDS": [
							81930085,
							0,
							0
						],
						"ALT_TEXTURES": [
							"pt_al_sniper.dds",
							" ",
							" "
						]
					},
					{
						"COST": 750,
						"PRESET_ID": 81930083,
						"STRING_ID": 0,
						"TEXTURE": "pt_al_medic.dds",
						"TECH_LEVEL": 1,
						"SPECIAL_TECH_NUMBER": 0,
						"UNIT_LIMIT": 0,
						"FACTORY": 1,
						"TECH_BUILDING": -1,
						"FACTORY_NOT_REQUIRED": false,
						"ALT_PRESETIDS": [
							0,
							0,
							0
						],
						"ALT_TEXTURES": [
							"",
							" ",
							" "
						]
					},
					{
						"COST": 500,
						"PRESET_ID": 81930101,
						"STRING_ID": 0,
						"TEXTURE": "pt_al_spy1.dds",
						"TECH_LEVEL": 1,
						"SPECIAL_TECH_NUMBER": 0,
						"UNIT_LIMIT": 0,
						"FACTORY": 1,
						"TECH_BUILDING": -1,
						"FACTORY_NOT_REQUIRED": false,
						"ALT_PRESETIDS": [
							81930109,
							81930072,
							81930068
						],
						"ALT_TEXTURES": [
							"pt_al_spy2.dds",
							"pt_al_spy3.dds",
							"pt_al_spy4.dds"
						]
					},
					{
						"COST": 500,
						"PRESET_ID": 81930088,
						"STRING_ID": 0,
						"TEXTURE": "pt_al_thief.dds",
						"TECH_LEVEL": 2,
						"SPECIAL_TECH_NUMBER": 0,
						"UNIT_LIMIT": 0,
						"FACTORY": 1,
						"TECH_BUILDING": -1,
						"FACTORY_NOT_REQUIRED": false,
						"ALT_PRESETIDS": [
							0,
							0,
							0
						],
						"ALT_TEXTURES": [
							"",
							"",
							""
						]
					},
					{
						"COST": 950,
						"PRESET_ID": 81930086,
						"STRING_ID": 0,
						"TEXTURE": "pt_al_mechanic.dds",
						"TECH_LEVEL": 3,
						"SPECIAL_TECH_NUMBER": 0,
						"UNIT_LIMIT": 0,
						"FACTORY": 1,
						"TECH_BUILDING": -1,
						"FACTORY_NOT_REQUIRED": false,
						"ALT_PRESETIDS": [
							0,
							0,
							0
						],
						"ALT_TEXTURES": [
							" ",
							" ",
							" "
						]
					},
					{
						"COST": 1200,
						"PRESET_ID": 81930089,
						"STRING_ID": 0,
						"TEXTURE": "pt_al_tanya.dds",
						"TECH_LEVEL": 5,
						"SPECIAL_TECH_NUMBER": 0,
						"UNIT_LIMIT": 0,
						"FACTORY": 1,
						"TECH_BUILDING": -1,
						"FACTORY_NOT_REQUIRED": false,
						"ALT_PRESETIDS": [
							81930111,
							81930071,
							0
						],
						"ALT_TEXTURES": [
							"pt_al_tanya_f.dds",
							"pt_al_tanya_u.dds",
							" "
						]
					}
				]
			}
		}
	}
}