{
	"PRESET_FILES": [
		[
			"Allied_Light_DMG2",
			1000000024
		],
		[
			"Allied_Light_DMG1",
			1000000013
		],
		[
			"Allied_Medium_DMG",
			1000000011
		],
		[
			"Reinforcements",
			1000000010
		],
		[
			"Bot_SovVehSM",
			1000000006
		],
		[
			"Floater",
			1000002155
		],
		[
			"Tech_Level_SM",
			1000001687
		],
		[
			"Seamist_Swim",
			1000001153
		],
		[
			"Seamist Start Vehs",
			1000001125
		],
		[
			"All_Arty_SM_6p",
			1000001124
		],
		[
			"All_MTank_SM_20p",
			1000001123
		],
		[
			"All_ML_SM_8p",
			1000001122
		],
		[
			"All_LTank_SM_4p",
			1000001121
		],
		[
			"All_Ranger_SM_2p",
			1000001120
		],
		[
			"RA_SM_HelicopterKiller",
			1000000032
		],
		[
			"RA_Seamist",
			1000000103
		],
		[
			"1000000102",
			1000000102
		],
		[
			"Vehicle_Indestructable_LST",
			1000000040
		],
		[
			"Seamist Notification Timer",
			1000000048
		],
		[
			"Seamist Allied Win",
			1000000057
		],
		[
			"Seamist Soviet Win",
			1000000063
		],
		[
			"Seamist_Boundy_Zone",
			1000000276
		],
		[
			"Vehicle_Fake_Cruiser",
			1000000149
		],
		[
			"Weapon_Fake_Cruiser",
			1000000151
		],
		[
			"Ammo_Fake_Cruiser",
			1000000152
		],
		[
			"Explosion_Fake_Cruiser",
			1000000155
		],
		[
			"SeamistWeather",
			1000000336
		],
		[
			"Seamist Trigger",
			1000000835
		],
		[
			"Seamist_Weather",
			1000002186
		],
		[
			"CruiserSpawn",
			1000002282
		],
		[
			"Vehicle_Fake_Dest",
			1000002284
		],
		[
			"Vehicle_Fake_GB",
			1000002286
		],
		[
			"DestSpawn",
			1000002288
		],
		[
			"GBSpawn",
			1000002289
		],
		[
			"Seamist_Water",
			1000000000
		],
		[
			"Seamist_Path",
			1000000002
		],
		[
			"Soviet Base Marker SM",
			1000000004
		],
		[
			"der",
			1000000007
		],
		[
			"lighthouse_int_spotlight",
			1000000003
		],
		[
			"All_LTank_SM_16p",
			1000000008
		],
		[
			"All_Ranger_SM_12p",
			1000000009
		],
		[
			"Seamist LTank Reinf at 18p",
			1000000014
		],
		[
			"All_LTank_SM_Reinf_18p",
			1000000016
		],
		[
			"Seamist APC Reinf at 14p",
			1000000017
		],
		[
			"All_APC_SM_Reinf_14p",
			1000000019
		],
		[
			"Seamist NTrans Reinf at 24p",
			1000000020
		],
		[
			"All_NTrans_SM_Reinf_24p",
			1000000022
		]
	],
	"VERSION": 12584
}