{
	"FACTORY_ID": 132365,
	"FACTORY_WRAPPER": {
		"DATA": {
			"DEFINITION_BASE": {
				"ID": 1000000150,
				"NAME": ""
			},
			"PHYS_DEF_CLASS": {
				"MODEL_NAME": "v_al_cruzer.w3d",
				"IS_PRELIT": false
			},
			"DYNAMIC_PHYS_DEF_CLASS": null,
			"MOVEABLE_PHYS_DEF_CLASS": {
				"MASS": 1000000.0,
				"GRAV_SCALE": 1.75,
				"ELASTICITY": 0.09999999403953552,
				"CINEMATIC_COLLISION_MODE": 3
			},
			"RIGID_BODY_DEF_CLASS": {
				"AERODYNAMIC_DRAG_COEFFICIENT": 0.0,
				"COLLISION_DISABLED": false,
				"COLLISION_DAMAGE_MULTIPLIER": 0.0
			},
			"VEHICLE_PHYS_DEF_CLASS": {
				"SPRING_CONSTANT": 600000.0,
				"DAMPING_CONSTANT": 40000.0,
				"SPRING_LENGTH": 3.0,
				"TRACTION_MULTIPLIER": 0.3999999761581421,
				"LATERAL_MOMENT_ARM": 0.009999999776482582,
				"TRACTIVE_MOMENT_ARM": 12.5,
				"ENGINE_FLAME_LENGTH": 1.0,
				"IS_FAKE": false
			},
			"TRACKED_VEHICLE_DEF_CLASS": {
				"MAX_ENGINE_TORQUE": 1125000.0,
				"TRACK_U_SCALE_FACTOR": 25.0,
				"TRACK_V_SCALE_FACTOR": 0.0,
				"TURN_TORQUE_SCALE_FACTOR": 2.0,
				"SMOOTH_TURNING": false,
				"REVERSE_TORQUE_SCALE_FACTOR": 1.0,
				"MAX_VISUAL_STEERING_ANGLE": 0.0,
				"VISUAL_STEERING_RESPONSE": 100.0
			}
		}
	}
}