{
	"FACTORY_ID": 262411,
	"FACTORY_WRAPPER": {
		"DATA": {
			"DEFINITION_BASE": {
				"ID": 1000000014,
				"NAME": "Seamist LTank Reinf at 18p"
			},
			"BASE_GAME_OBJ_DEF": null,
			"SCRIPTABLE_GAME_OBJ_DEF": {
				"SCRIPT_NAME_LIST": [
					"JFW_Custom_Play_Cinematic",
					"JFW_Startup_Custom_Self"
				],
				"SCRIPT_PARAMETER_LIST": [
					"333350,chinook_ltank.txt,40.00 160.00 0.00,-85.00",
					"333350,0,0"
				]
			},
			"DAMAGEABLE_GAME_OBJ_DEF": {
				"DEFENSE_OBJECT_DEF": {
					"HEALTH": 500.0,
					"HEALTH_MAX": 500.0,
					"SKIN": 1,
					"SHIELD_STRENGTH": 0.0,
					"SHIELD_STRENGTH_MAX": 0.0,
					"SHIELD_TYPE": 1,
					"DAMAGE_POINTS": 0.0,
					"DEATH_POINTS": 0.0,
					"SEPARATE_CREDITS_FROM_SCORE": false,
					"DAMAGE_CREDITS": 0.0,
					"DEATH_CREDITS": 0.0
				},
				"INFO_ICON_TEXTURE_FILENAME": "",
				"TRANSLATED_NAME_ID": 0,
				"ENCYCLOPEDIA_TYPE": -1,
				"ENCYCLOPEDIA_ID": 0,
				"NOT_TARGETABLE": true,
				"NOT_ENEMY_TARGETABLE": false,
				"DEFAULT_PLAYER_TYPE": -2
			},
			"PHYSICAL_GAME_OBJ_DEF": {
				"TYPE": 0,
				"RADAR_BLIP_TYPE": 0,
				"BULLSEYE_OFFSET_Z": 0.0,
				"ANIMATION": "",
				"PHYS_DEF_ID": 1000000015,
				"KILLED_EXPLOSION": 0,
				"DEFAULT_HIBERNATION_ENABLE": false,
				"ALLOW_INNATE_CONVERSATIONS": false,
				"IGNORE_COLLISION_MULTIPLIER": true,
				"ORATOR_TYPE": 999,
				"USE_CREATION_EFFECT": false,
				"TEAM_VISIBILITY": 0,
				"IGNORE_FOR_TRACKING": false,
				"DEFAULT_PLAYER_VISIBLE": true,
				"SPOTTING_RANGE": 0.0,
				"SPOT_STEALTH": false,
				"RADAR_BLIP_VISIBLE_TO_ALL_TEAMS": false,
				"SPOT_SNEAKING": false
			},
			"SIMPLE_GAME_OBJ_DEF": {
				"IS_EDITOR_OBJECT": true,
				"IS_HIDDEN_OBJECT": false,
				"PLAYER_TERMINAL_TYPE": -1,
				"IS_CAPTURE_TERMINAL": false,
				"WANTS_COLLISION_NOTIFICATIONS": false,
				"GROUP_MUST_BE_EQUAL_TO_SHOW": false,
				"IGNORE_FADE_DISTANCE": false,
				"ICON_SCALE": 1.0,
				"OBJ_MARKER_Z_OFFSET": 0.0,
				"ALLOW_TELEPORT_ON_TOP": false,
				"COLLISION_GROUP": 0,
				"SHOW_SHIELD_BAR": false,
				"DISPLAY_REQUIREMENT": 0
			}
		}
	}
}