{
	"FACTORY_ID": 262433,
	"FACTORY_WRAPPER": {
		"DATA": {
			"DEFINITION_BASE": {
				"ID": 1000001121,
				"NAME": "All_LTank_SM_4p"
			},
			"SPAWNER_DEF_CLASS": {
				"SPAWN_DEFINITION_ID_LIST": [
					1000000024
				],
				"SCRIPT_NAME_LIST": [
					"JFW_Startup_Custom_Self",
					"MS_AI_Marker_Vehicle_Search_Ignore",
					"MS_Custom_Lock_Vehicle_To_Team"
				],
				"SCRIPT_PARAMETER_LIST": [
					"80550,0,1",
					"2",
					"80550,1"
				],
				"PLAYER_TYPE": 1,
				"SPAWN_MAX": 1,
				"SPAWN_DELAY": 1.0,
				"SPAWN_DELAY_VARIATION": 0.0,
				"IS_PRIMARY": false,
				"IS_SOLDIER_STARTUP": false,
				"GOTO_SPAWNER_POS": false,
				"GOTO_SPAWNER_POS_PRIORITY": 30.0,
				"TELEPORT_FIRST_SPAWN": true,
				"SPECIAL_EFFECTS_OBJ_ID": 0,
				"POST_VISUAL_SPAWN_DELAY": 0.0,
				"STARTS_DISABLED": false,
				"KILL_HIBERNATING_SPAWN": false,
				"APPLY_SPAWN_MATERIAL_EFFECT": true,
				"IS_MULTIPLAY_WEAPON_SPAWNER": false,
				"RANDOM_SPAWN_ANGLE_ENABLED": false,
				"RANDOM_SPAWN_ANGLE_START": 0.0,
				"RANDOM_SPAWN_ANGLE_END": 0.0,
				"MIN_PLAYER_COUNT": 4,
				"MAX_PLAYER_COUNT": 0,
				"STARTS_DELAYED": false
			}
		}
	}
}