{
	"FACTORY_ID": 262411,
	"FACTORY_WRAPPER": {
		"DATA": {
			"DEFINITION_BASE": {
				"ID": 1000000057,
				"NAME": "Seamist Allied Win"
			},
			"BASE_GAME_OBJ_DEF": null,
			"SCRIPTABLE_GAME_OBJ_DEF": {
				"SCRIPT_NAME_LIST": [
					"JFW_Attach_Script_Custom",
					"JFW_Custom_Send_Custom",
					"JFW_Custom_Send_Custom",
					"JFW_Message_Send_Custom_Team",
					"JFW_Message_Send_Custom_Team",
					"JFW_Message_Send_Custom_Team",
					"JFW_Message_Send_Custom_Team",
					"JFW_Set_Time_Custom",
					"JFW_Timer_Custom_On_Off"
				],
				"SCRIPT_PARAMETER_LIST": [
					"JFW_Custom_Destroy_All_Buildings,0,Z,123432123",
					"121212121,99999999,0,100416",
					"121212121,121212121,0,150596",
					"1,IDS_Seamist_Victory_Allied,160,255,160,,121212121,false",
					"1,IDS_EVA_Victory_Allied,255,255,255,AlliedVictoryNodelay,121212121,0",
					"0,IDS_Seamist_Loss_Soviet,255,160,160,,121212121,0",
					"0,IDS_EVA_Mission_Failed,255,255,255,MissionFailedNodelay,121212121,0",
					"121212121,60.00",
					"30.00,57,0,100446,123432123,0,121212121,0"
				]
			},
			"DAMAGEABLE_GAME_OBJ_DEF": {
				"DEFENSE_OBJECT_DEF": {
					"HEALTH": 500.0,
					"HEALTH_MAX": 500.0,
					"SKIN": 1,
					"SHIELD_STRENGTH": 0.0,
					"SHIELD_STRENGTH_MAX": 0.0,
					"SHIELD_TYPE": 1,
					"DAMAGE_POINTS": 0.0,
					"DEATH_POINTS": 0.0,
					"SEPARATE_CREDITS_FROM_SCORE": false,
					"DAMAGE_CREDITS": 0.0,
					"DEATH_CREDITS": 0.0
				},
				"INFO_ICON_TEXTURE_FILENAME": "",
				"TRANSLATED_NAME_ID": 0,
				"ENCYCLOPEDIA_TYPE": -1,
				"ENCYCLOPEDIA_ID": 0,
				"NOT_TARGETABLE": true,
				"NOT_ENEMY_TARGETABLE": false,
				"DEFAULT_PLAYER_TYPE": -2
			},
			"PHYSICAL_GAME_OBJ_DEF": {
				"TYPE": 0,
				"RADAR_BLIP_TYPE": 0,
				"BULLSEYE_OFFSET_Z": 0.0,
				"ANIMATION": "",
				"PHYS_DEF_ID": 1000000058,
				"KILLED_EXPLOSION": 0,
				"DEFAULT_HIBERNATION_ENABLE": false,
				"ALLOW_INNATE_CONVERSATIONS": false,
				"IGNORE_COLLISION_MULTIPLIER": true,
				"ORATOR_TYPE": 999,
				"USE_CREATION_EFFECT": false,
				"TEAM_VISIBILITY": 0,
				"IGNORE_FOR_TRACKING": false,
				"DEFAULT_PLAYER_VISIBLE": true,
				"SPOTTING_RANGE": 0.0,
				"SPOT_STEALTH": false,
				"RADAR_BLIP_VISIBLE_TO_ALL_TEAMS": false,
				"SPOT_SNEAKING": false
			},
			"SIMPLE_GAME_OBJ_DEF": {
				"IS_EDITOR_OBJECT": true,
				"IS_HIDDEN_OBJECT": false,
				"PLAYER_TERMINAL_TYPE": -1,
				"IS_CAPTURE_TERMINAL": false,
				"WANTS_COLLISION_NOTIFICATIONS": false,
				"GROUP_MUST_BE_EQUAL_TO_SHOW": false,
				"IGNORE_FADE_DISTANCE": false,
				"ICON_SCALE": 1.0,
				"OBJ_MARKER_Z_OFFSET": 0.0,
				"ALLOW_TELEPORT_ON_TOP": false,
				"COLLISION_GROUP": 0,
				"SHOW_SHIELD_BAR": false,
				"DISPLAY_REQUIREMENT": 0
			}
		}
	}
}