{
	"FACTORY_ID": 132365,
	"FACTORY_WRAPPER": {
		"DATA": {
			"DEFINITION_BASE": {
				"ID": 1000000023,
				"NAME": ""
			},
			"PHYS_DEF_CLASS": {
				"MODEL_NAME": "v_al_ltank_f.w3d",
				"IS_PRELIT": false
			},
			"DYNAMIC_PHYS_DEF_CLASS": null,
			"MOVEABLE_PHYS_DEF_CLASS": {
				"MASS": 4000.0,
				"GRAV_SCALE": 2.25,
				"ELASTICITY": 0.09999999403953552,
				"CINEMATIC_COLLISION_MODE": 3
			},
			"RIGID_BODY_DEF_CLASS": {
				"AERODYNAMIC_DRAG_COEFFICIENT": 100.0,
				"COLLISION_DISABLED": false,
				"COLLISION_DAMAGE_MULTIPLIER": 0.0
			},
			"VEHICLE_PHYS_DEF_CLASS": {
				"SPRING_CONSTANT": 100000.0,
				"DAMPING_CONSTANT": 15000.0,
				"SPRING_LENGTH": 0.5,
				"TRACTION_MULTIPLIER": 1.1999999284744263,
				"LATERAL_MOMENT_ARM": 0.75,
				"TRACTIVE_MOMENT_ARM": 0.5999999642372131,
				"ENGINE_FLAME_LENGTH": 1.0,
				"IS_FAKE": false
			},
			"TRACKED_VEHICLE_DEF_CLASS": {
				"MAX_ENGINE_TORQUE": 33800.0,
				"TRACK_U_SCALE_FACTOR": 0.0,
				"TRACK_V_SCALE_FACTOR": 55.0,
				"TURN_TORQUE_SCALE_FACTOR": 0.4699999988079071,
				"SMOOTH_TURNING": false,
				"REVERSE_TORQUE_SCALE_FACTOR": 1.0,
				"MAX_VISUAL_STEERING_ANGLE": 0.0,
				"VISUAL_STEERING_RESPONSE": 100.0
			}
		}
	}
}