{
	"FACTORY_ID": 258,
	"FACTORY_WRAPPER": {
		"DATA": {
			"DEFINITION_BASE": {
				"ID": 1000000006,
				"NAME": "Bot_SovVehSM"
			},
			"TWIDDLER_CLASS": {
				"INDIRECT_CLASS_ID": 12288,
				"SPAWN_DEFINITION_ID_LIST": [
					82080056,
					82080055,
					82080055,
					82080055,
					82080211,
					82080056,
					82080055
				]
			}
		}
	}
}