{
	"FACTORY_ID": 327681,
	"FACTORY_WRAPPER": {
		"DATA": {
			"DEFINITION_BASE": {
				"ID": 1000000032,
				"NAME": "RA_SM_HelicopterKiller"
			},
			"TILE_DEFINITION_CLASS": {
				"PHYS_DEF_ID": 1000000034
			}
		}
	}
}