{
	"FACTORY_ID": 262411,
	"FACTORY_WRAPPER": {
		"DATA": {
			"DEFINITION_BASE": {
				"ID": 1000000028,
				"NAME": "ShockRifle_ChainLightning"
			},
			"BASE_GAME_OBJ_DEF": null,
			"SCRIPTABLE_GAME_OBJ_DEF": {
				"SCRIPT_NAME_LIST": [
					"JFW_Destroy_Self_Timer_Custom",
					"JFW_Startup_Custom_Self",
					"MS_Created_Spawn_Beam_Fragments"
				],
				"SCRIPT_PARAMETER_LIST": [
					"0.00,,0",
					"0,0,1",
					"Ammo_ShockRifle_ChainFragment,4.00,2,true,0.01"
				]
			},
			"DAMAGEABLE_GAME_OBJ_DEF": {
				"DEFENSE_OBJECT_DEF": {
					"HEALTH": 1.0,
					"HEALTH_MAX": 1.0,
					"SKIN": 1,
					"SHIELD_STRENGTH": 0.0,
					"SHIELD_STRENGTH_MAX": 0.0,
					"SHIELD_TYPE": 1,
					"DAMAGE_POINTS": 0.0,
					"DEATH_POINTS": 0.0,
					"SEPARATE_CREDITS_FROM_SCORE": false,
					"DAMAGE_CREDITS": 0.0,
					"DEATH_CREDITS": 0.0
				},
				"INFO_ICON_TEXTURE_FILENAME": "",
				"TRANSLATED_NAME_ID": 0,
				"ENCYCLOPEDIA_TYPE": -1,
				"ENCYCLOPEDIA_ID": 0,
				"NOT_TARGETABLE": false,
				"NOT_ENEMY_TARGETABLE": false,
				"DEFAULT_PLAYER_TYPE": -2
			},
			"PHYSICAL_GAME_OBJ_DEF": {
				"TYPE": 0,
				"RADAR_BLIP_TYPE": 0,
				"BULLSEYE_OFFSET_Z": 0.0,
				"ANIMATION": "",
				"PHYS_DEF_ID": 1000000029,
				"KILLED_EXPLOSION": 0,
				"DEFAULT_HIBERNATION_ENABLE": true,
				"ALLOW_INNATE_CONVERSATIONS": false,
				"IGNORE_COLLISION_MULTIPLIER": false,
				"ORATOR_TYPE": 999,
				"USE_CREATION_EFFECT": false,
				"TEAM_VISIBILITY": 0,
				"IGNORE_FOR_TRACKING": false,
				"DEFAULT_PLAYER_VISIBLE": true,
				"SPOTTING_RANGE": 0.0,
				"SPOT_STEALTH": false,
				"RADAR_BLIP_VISIBLE_TO_ALL_TEAMS": false,
				"SPOT_SNEAKING": false
			},
			"SIMPLE_GAME_OBJ_DEF": {
				"IS_EDITOR_OBJECT": false,
				"IS_HIDDEN_OBJECT": false,
				"PLAYER_TERMINAL_TYPE": -1,
				"IS_CAPTURE_TERMINAL": false,
				"WANTS_COLLISION_NOTIFICATIONS": false,
				"GROUP_MUST_BE_EQUAL_TO_SHOW": false,
				"IGNORE_FADE_DISTANCE": false,
				"ICON_SCALE": 1.0,
				"OBJ_MARKER_Z_OFFSET": 0.0,
				"ALLOW_TELEPORT_ON_TOP": false,
				"COLLISION_GROUP": 0,
				"SHOW_SHIELD_BAR": false,
				"DISPLAY_REQUIREMENT": 0
			}
		}
	}
}