{
	"FACTORY_ID": 132360,
	"FACTORY_WRAPPER": {
		"DATA": {
			"DEFINITION_BASE": {
				"ID": 1000001301,
				"NAME": ""
			},
			"PHYS_DEF_CLASS": {
				"MODEL_NAME": "ra_testmap2w.w3d",
				"IS_PRELIT": false
			},
			"STATIC_PHYS_DEF_CLASS": {
				"IS_NON_OCCLUDER": false,
				"COLLISION_GROUP": 16,
				"VISIBILITY_MODE": 0,
				"IS_LIGHT_PASSTHROUGH": false
			}
		}
	}
}