{
	"FACTORY_ID": 132353,
	"FACTORY_WRAPPER": {
		"DATA": {
			"DEFINITION_BASE": {
				"ID": 1000000015,
				"NAME": ""
			},
			"PHYS_DEF_CLASS": {
				"MODEL_NAME": "c_so_grn.W3D",
				"IS_PRELIT": false
			},
			"DYNAMIC_PHYS_DEF_CLASS": null,
			"MOVEABLE_PHYS_DEF_CLASS": {
				"MASS": 1.0,
				"GRAV_SCALE": 2.0,
				"ELASTICITY": 0.0,
				"CINEMATIC_COLLISION_MODE": 2
			},
			"PHYS3_DEF_CLASS": {
				"NORM_SPEED": 7.5,
				"SLIDE_ANGLE": 0.7853981852531433,
				"STEP_HEIGHT": 0.25
			},
			"HUMAN_PHYS_DEF_CLASS": {
				"INERTIA_COMPONENT": {
					"INERTIA_PARAMETERS": [
						0.41999998688697815,
						0.04999999701976776,
						0.47999998927116394,
						0.07000000029802322,
						0.0,
						0.5,
						0.6800000071525574,
						0.05999999865889549,
						0.07000000029802322
					]
				},
				"HUMAN_SOUND_EFFECTS": [
					0,
					0,
					0
				],
				"SPRINT_MULTIPLIER": 1.2999999523162842,
				"SFX_MAX_PITCH_FACTOR": 1.0,
				"SFX_PITCH_RANDOMIZATION_FACTOR": 0.0,
				"SWIMMING_MULTIPLIER": 0.6499999761581421,
				"SNIPING_MULTIPLIER": 1.0,
				"SWIMMING_MODEL": "",
				"WATER_COLOR": [
					0.0784313753247261,
					0.2352941334247589,
					0.3137255012989044
				],
				"WATER_OPACITY": 0.3999999761581421,
				"SUBMERGED_FOG_EFFECT": 81960060,
				"WATER_FOG_COLOR": [
					0.0784313753247261,
					0.2352941334247589,
					0.3137255012989044
				],
				"WATER_FOG_START": 0.0,
				"WATER_FOG_END": 30.0,
				"WATER_DAMAGE_DELAY_TIME": 10.0,
				"WATER_DAMAGE_DELAY_TIME_RECOVER": 2.0,
				"DROWN_TIME": 8.0,
				"STAR_DROWN_SEQUENCE": 3.0,
				"DROWN_DAMAGE": 200.0,
				"DROWN_DAMAGE_TICK_TIME": 0.09999999403953552,
				"CATCH_BREATH_FACTOR": 3.0,
				"WATER_DAMAGE_TICK_TIME": 0.09999999403953552,
				"WATER_DAMAGE_AMOUNT": 0.25,
				"SWIMMING_ARMOR": 9,
				"SWIMMING_SKIN": 44,
				"WATER_DAMAGE_WARHEAD": 0,
				"CROUCH_PHYS_BOX_HEIGHT_PERCENTAGE": 0.7999999523162842
			}
		}
	}
}