{
	"FACTORY_ID": 132363,
	"FACTORY_WRAPPER": {
		"DATA": {
			"DEFINITION_BASE": {
				"ID": 1000000031,
				"NAME": ""
			},
			"PHYS_DEF_CLASS": {
				"MODEL_NAME": "exp_tesla_sm.w3d",
				"IS_PRELIT": false
			},
			"DYNAMIC_PHYS_DEF_CLASS": null,
			"DECORATION_PHYS_DEF_CLASS": null,
			"TIMED_DECORATION_PHYS_DEF_CLASS": {
				"LIFETIME": 2.0
			}
		}
	}
}