{
	"FACTORY_ID": 262435,
	"FACTORY_WRAPPER": {
		"DATA": {
			"DEFINITION_BASE": {
				"ID": 1000000005,
				"NAME": "testmapundewater"
			},
			"BASE_GAME_OBJ_DEF": null,
			"SCRIPTABLE_GAME_OBJ_DEF": {
				"SCRIPT_NAME_LIST": [
					"RA_Underwater_Target_Hider",
					"SH_HurtUnitTimerZone"
				],
				"SCRIPT_PARAMETER_LIST": [
					"0",
					"0.25,Water,30.00"
				]
			},
			"SCRIPT_ZONE_GAME_OBJ_DEF": {
				"ZONE_TYPE": 0,
				"COLOR": [
					0.8862745761871338,
					0.545098066329956,
					0.0
				],
				"CHECK_STARS_ONLY": false,
				"IS_ENVIRONMENT_ZONE": false,
				"CHECK_C4": false,
				"PRESET_ID": 0,
				"VEHICLES_ONLY": false,
				"INFANTRY_ONLY": false,
				"MODEL_NAME": "ra_testmap2wd.w3d",
				"SIZE": [
					0.0,
					0.0,
					0.0
				],
				"CHECK_INTERVAL": 0.0
			}
		}
	}
}