{
	"FACTORY_ID": 262433,
	"FACTORY_WRAPPER": {
		"DATA": {
			"DEFINITION_BASE": {
				"ID": 1000001354,
				"NAME": "medic"
			},
			"SPAWNER_DEF_CLASS": {
				"SPAWN_DEFINITION_ID_LIST": [
					81930083
				],
				"SCRIPT_NAME_LIST": null,
				"SCRIPT_PARAMETER_LIST": null,
				"PLAYER_TYPE": 1,
				"SPAWN_MAX": -1,
				"SPAWN_DELAY": 1.0,
				"SPAWN_DELAY_VARIATION": 0.0,
				"IS_PRIMARY": false,
				"IS_SOLDIER_STARTUP": false,
				"GOTO_SPAWNER_POS": false,
				"GOTO_SPAWNER_POS_PRIORITY": 30.0,
				"TELEPORT_FIRST_SPAWN": true,
				"SPECIAL_EFFECTS_OBJ_ID": 0,
				"POST_VISUAL_SPAWN_DELAY": 0.0,
				"STARTS_DISABLED": false,
				"KILL_HIBERNATING_SPAWN": false,
				"APPLY_SPAWN_MATERIAL_EFFECT": true,
				"IS_MULTIPLAY_WEAPON_SPAWNER": false,
				"RANDOM_SPAWN_ANGLE_ENABLED": false,
				"RANDOM_SPAWN_ANGLE_START": 0.0,
				"RANDOM_SPAWN_ANGLE_END": 0.0,
				"MIN_PLAYER_COUNT": 0,
				"MAX_PLAYER_COUNT": 0,
				"STARTS_DELAYED": false
			}
		}
	}
}