{
	"FACTORY_ID": 132352,
	"FACTORY_WRAPPER": {
		"DATA": {
			"DEFINITION_BASE": {
				"ID": 1000000029,
				"NAME": ""
			},
			"PHYS_DEF_CLASS": {
				"MODEL_NAME": "NULL",
				"IS_PRELIT": false
			},
			"DYNAMIC_PHYS_DEF_CLASS": null,
			"DECORATION_PHYS_DEF_CLASS": null
		}
	}
}